[gd_scene load_steps=3 format=1]

[ext_resource path="res://scripts/Explosion.gd" type="Script" id=1]

[sub_resource type="ColorRamp" id=1]

offsets = FloatArray( 0, 1 )
colors = ColorArray( 1, 0.84375, 0, 1, 0, 0, 0, 0.902118 )

[node name="Explosion" type="Particles2D"]

config/amount = 128
config/lifetime = 1.0
config/emit_timeout = 1.0
config/emitting = false
config/process_mode = 1
config/explosiveness = 0.1
params/direction = 0.0
params/spread = 180.0
params/linear_velocity = 30.0
params/spin_velocity = 0.0
params/orbit_velocity = 0.0
params/gravity_direction = 0.0
params/gravity_strength = 0.0
params/radial_accel = 0.0
params/tangential_accel = 0.0
params/damping = 0.0
params/initial_angle = 0.0
params/initial_size = 3.0
params/final_size = 0.1
params/hue_variation = 0.0
params/anim_speed_scale = 1.0
params/anim_initial_pos = 0.0
randomness/linear_velocity = 1.0
color/color_ramp = SubResource( 1 )
script/script = ExtResource( 1 )


