[gd_scene load_steps=4 format=1]

[sub_resource type="ImageTexture" id=1]

flags = 0
image = Image( 32, 32, 0, RGBA, 43, 26, 25, 255, 94, 60, 51, 255, 94, 60, 51, 255, 68, 43, 38, 255, 94, 60, 51, 255, 94, 60, 51, 255, 94, 60, 51, 255, 68, 43, 38, 255, 119, 76, 64, 255, 68, 43, 38, 255, 43, 26, 25, 255, 43, 26, 25, 255, 43, 26, 25, 255, 43, 26, 25, 255, 68, 43, 38, 255, 68, 43, 38, 255, 43, 26, 25, 255, 68, 43, 38, 255, 43, 26, 25, 255, 43, 26, 25, 255, 68, 43, 38, 255, 119, 76, 64, 255, 144, 93, 77, 255, 119, 76, 64, 255, 144, 93, 77, 255, 144, 93, 77, 255, 94, 60, 51, 255, 43, 26, 25, 255, 43, 26, 25, 255, 43, 26, 25, 255, 43, 26, 25, 255, 68, 43, 38, 255, 68, 43, 38, 255, 68, 43, 38, 255, 68, 43, 38, 255, 94, 60, 51, 255, 68, 43, 38, 255, 68, 43, 38, 255, 68, 43, 38, 255, 68, 43, 38, 255, 94, 60, 51, 255, 68, 43, 38, 255, 43, 26, 25, 255, 68, 43, 38, 255, 43, 26, 25, 255, 43, 26, 25, 255, 68, 43, 38, 255, 68, 43, 38, 255, 68, 43, 38, 255, 68, 43, 38, 255, 43, 26, 25, 255, 43, 26, 25, 255, 43, 26, 25, 255, 68, 43, 38, 255, 94, 60, 51, 255, 144, 93, 77, 255, 119, 76, 64, 255, 144, 93, 77, 255, 119, 76, 64, 255, 119, 76, 64, 255, 94, 60, 51, 255, 43, 26, 25, 255, 68, 43, 38, 255, 43, 26, 25, 255, 68, 43, 38, 255, 43, 26, 25, 255, 68, 43, 38, 255, 68, 43, 38, 255, 68, 43, 38, 255, 43, 26, 25, 255, 43, 26, 25, 255, 43, 26, 25, 255, 43, 26, 25, 255, 68, 43, 38, 255, 43, 26, 25, 255, 68, 43, 38, 255, 68, 43, 38, 255, 94, 60, 51, 255, 119, 76, 64, 255, 94, 60, 51, 255, 119, 76, 64, 255, 94, 60, 51, 255, 68, 43, 38, 255, 43, 26, 25, 255, 43, 26, 25, 255, 68, 43, 38, 255, 94, 60, 51, 255, 94, 60, 51, 255, 94, 60, 51, 255, 144, 93, 77, 255, 144, 93, 77, 255, 144, 93, 77, 255, 94, 60, 51, 255, 68, 43, 38, 255, 43, 26, 25, 255, 68, 43, 38, 255, 43, 26, 25, 255, 43, 26, 25, 255, 68, 43, 38, 255, 68, 43, 38, 255, 68, 43, 38, 255, 43, 26, 25, 255, 68, 43, 38, 255, 43, 26, 25, 255, 43, 26, 25, 255, 43, 26, 25, 255, 68, 43, 38, 255, 43, 26, 25, 255, 43, 26, 25, 255, 68, 43, 38, 255, 144, 93, 77, 255, 144, 93, 77, 255, 144, 93, 77, 255, 119, 76, 64, 255, 94, 60, 51, 255, 68, 43, 38, 255, 43, 26, 25, 255, 68, 43, 38, 255, 68, 43, 38, 255, 68, 43, 38, 255, 94, 60, 51, 255, 94, 60, 51, 255, 119, 76, 64, 255, 144, 93, 77, 255, 119, 76, 64, 255, 68, 43, 38, 255, 43, 26, 25, 255, 43, 26, 25, 255, 94, 60, 51, 255, 94, 60, 51, 255, 43, 26, 25, 255, 43, 26, 25, 255, 68, 43, 38, 255, 43, 26, 25, 255, 68, 43, 38, 255, 68, 43, 38, 255, 68, 43, 38, 255, 68, 43, 38, 255, 94, 60, 51, 255, 43, 26, 25, 255, 68, 43, 38, 255, 94, 60, 51, 255, 119, 76, 64, 255, 144, 93, 77, 255, 144, 93, 77, 255, 144, 93, 77, 255, 119, 76, 64, 255, 68, 43, 38, 255, 43, 26, 25, 255, 43, 26, 25, 255, 68, 43, 38, 255, 68, 43, 38, 255, 94, 60, 51, 255, 94, 60, 51, 255, 144, 93, 77, 255, 119, 76, 64, 255, 94, 60, 51, 255, 68, 43, 38, 255, 68, 43, 38, 255, 68, 43, 38, 255, 43, 26, 25, 255, 119, 76, 64, 255, 119, 76, 64, 255, 68, 43, 38, 255, 94, 60, 51, 255, 94, 60, 51, 255, 94, 60, 51, 255, 68, 43, 38, 255, 68, 43, 38, 255, 43, 26, 25, 255, 43, 26, 25, 255, 94, 60, 51, 255, 68, 43, 38, 255, 68, 43, 38, 255, 119, 76, 64, 255, 119, 76, 64, 255, 94, 60, 51, 255, 119, 76, 64, 255, 119, 76, 64, 255, 94, 60, 51, 255, 94, 60, 51, 255, 68, 43, 38, 255, 43, 26, 25, 255, 68, 43, 38, 255, 68, 43, 38, 255, 94, 60, 51, 255, 119, 76, 64, 255, 119, 76, 64, 255, 94, 60, 51, 255, 43, 26, 25, 255, 68, 43, 38, 255, 68, 43, 38, 255, 94, 60, 51, 255, 68, 43, 38, 255, 68, 43, 38, 255, 119, 76, 64, 255, 94, 60, 51, 255, 94, 60, 51, 255, 94, 60, 51, 255, 43, 26, 25, 255, 43, 26, 25, 255, 68, 43, 38, 255, 68, 43, 38, 255, 68, 43, 38, 255, 43, 26, 25, 255, 68, 43, 38, 255, 94, 60, 51, 255, 119, 76, 64, 255, 94, 60, 51, 255, 119, 76, 64, 255, 119, 76, 64, 255, 94, 60, 51, 255, 94, 60, 51, 255, 68, 43, 38, 255, 94, 60, 51, 255, 68, 43, 38, 255, 94, 60, 51, 255, 94, 60, 51, 255, 94, 60, 51, 255, 94, 60, 51, 255, 68, 43, 38, 255, 43, 26, 25, 255, 68, 43, 38, 255, 94, 60, 51, 255, 68, 43, 38, 255, 94, 60, 51, 255, 68, 43, 38, 255, 94, 60, 51, 255, 119, 76, 64, 255, 119, 76, 64, 255, 43, 26, 25, 255, 43, 26, 25, 255, 43, 26, 25, 255, 68, 43, 38, 255, 94, 60, 51, 255, 68, 43, 38, 255, 43, 26, 25, 255, 43, 26, 25, 255, 68, 43, 38, 255, 119, 76, 64, 255, 94, 60, 51, 255, 119, 76, 64, 255, 119, 76, 64, 255, 119, 76, 64, 255, 119, 76, 64, 255, 119, 76, 64, 255, 43, 26, 25, 255, 68, 43, 38, 255, 68, 43, 38, 255, 68, 43, 38, 255, 94, 60, 51, 255, 68, 43, 38, 255, 68, 43, 38, 255, 43, 26, 25, 255, 68, 43, 38, 255, 43, 26, 25, 255, 43, 26, 25, 255, 43, 26, 25, 255, 43, 26, 25, 255, 68, 43, 38, 255, 94, 60, 51, 255, 68, 43, 38, 255, 43, 26, 25, 255, 68, 43, 38, 255, 68, 43, 38, 255, 94, 60, 51, 255, 119, 76, 64, 255, 119, 76, 64, 255, 94, 60, 51, 255, 43, 26, 25, 255, 68, 43, 38, 255, 43, 26, 25, 255, 68, 43, 38, 255, 94, 60, 51, 255, 119, 76, 64, 255, 68, 43, 38, 255, 94, 60, 51, 255, 94, 60, 51, 255, 68, 43, 38, 255, 43, 26, 25, 255, 68, 43, 38, 255, 94, 60, 51, 255, 68, 43, 38, 255, 68, 43, 38, 255, 43, 26, 25, 255, 94, 60, 51, 255, 43, 26, 25, 255, 68, 43, 38, 255, 94, 60, 51, 255, 43, 26, 25, 255, 43, 26, 25, 255, 68, 43, 38, 255, 94, 60, 51, 255, 68, 43, 38, 255, 43, 26, 25, 255, 68, 43, 38, 255, 119, 76, 64, 255, 94, 60, 51, 255, 94, 60, 51, 255, 68, 43, 38, 255, 43, 26, 25, 255, 43, 26, 25, 255, 43, 26, 25, 255, 43, 26, 25, 255, 94, 60, 51, 255, 43, 26, 25, 255, 94, 60, 51, 255, 68, 43, 38, 255, 68, 43, 38, 255, 68, 43, 38, 255, 68, 43, 38, 255, 94, 60, 51, 255, 68, 43, 38, 255, 68, 43, 38, 255, 94, 60, 51, 255, 43, 26, 25, 255, 68, 43, 38, 255, 43, 26, 25, 255, 68, 43, 38, 255, 94, 60, 51, 255, 68, 43, 38, 255, 68, 43, 38, 255, 43, 26, 25, 255, 43, 26, 25, 255, 68, 43, 38, 255, 43, 26, 25, 255, 43, 26, 25, 255, 94, 60, 51, 255, 119, 76, 64, 255, 119, 76, 64, 255, 94, 60, 51, 255, 94, 60, 51, 255, 43, 26, 25, 255, 43, 26, 25, 255, 43, 26, 25, 255, 43, 26, 25, 255, 68, 43, 38, 255, 43, 26, 25, 255, 68, 43, 38, 255, 68, 43, 38, 255, 94, 60, 51, 255, 43, 26, 25, 255, 68, 43, 38, 255, 94, 60, 51, 255, 94, 60, 51, 255, 68, 43, 38, 255, 43, 26, 25, 255, 94, 60, 51, 255, 94, 60, 51, 255, 94, 60, 51, 255, 94, 60, 51, 255, 94, 60, 51, 255, 119, 76, 64, 255, 119, 76, 64, 255, 68, 43, 38, 255, 43, 26, 25, 255, 43, 26, 25, 255, 68, 43, 38, 255, 94, 60, 51, 255, 94, 60, 51, 255, 119, 76, 64, 255, 94, 60, 51, 255, 119, 76, 64, 255, 43, 26, 25, 255, 43, 26, 25, 255, 43, 26, 25, 255, 68, 43, 38, 255, 68, 43, 38, 255, 43, 26, 25, 255, 68, 43, 38, 255, 68, 43, 38, 255, 68, 43, 38, 255, 43, 26, 25, 255, 94, 60, 51, 255, 68, 43, 38, 255, 94, 60, 51, 255, 94, 60, 51, 255, 68, 43, 38, 255, 43, 26, 25, 255, 94, 60, 51, 255, 119, 76, 64, 255, 94, 60, 51, 255, 119, 76, 64, 255, 119, 76, 64, 255, 119, 76, 64, 255, 119, 76, 64, 255, 119, 76, 64, 255, 68, 43, 38, 255, 68, 43, 38, 255, 68, 43, 38, 255, 68, 43, 38, 255, 94, 60, 51, 255, 119, 76, 64, 255, 94, 60, 51, 255, 94, 60, 51, 255, 43, 26, 25, 255, 68, 43, 38, 255, 43, 26, 25, 255, 119, 76, 64, 255, 94, 60, 51, 255, 94, 60, 51, 255, 68, 43, 38, 255, 68, 43, 38, 255, 94, 60, 51, 255, 43, 26, 25, 255, 68, 43, 38, 255, 43, 26, 25, 255, 68, 43, 38, 255, 43, 26, 25, 255, 43, 26, 25, 255, 43, 26, 25, 255, 68, 43, 38, 255, 119, 76, 64, 255, 94, 60, 51, 255, 119, 76, 64, 255, 144, 93, 77, 255, 144, 93, 77, 255, 119, 76, 64, 255, 119, 76, 64, 255, 94, 60, 51, 255, 68, 43, 38, 255, 43, 26, 25, 255, 68, 43, 38, 255, 119, 76, 64, 255, 94, 60, 51, 255, 94, 60, 51, 255, 43, 26, 25, 255, 68, 43, 38, 255, 43, 26, 25, 255, 94, 60, 51, 255, 119, 76, 64, 255, 144, 93, 77, 255, 119, 76, 64, 255, 94, 60, 51, 255, 94, 60, 51, 255, 68, 43, 38, 255, 68, 43, 38, 255, 43, 26, 25, 255, 43, 26, 25, 255, 43, 26, 25, 255, 43, 26, 25, 255, 68, 43, 38, 255, 68, 43, 38, 255, 68, 43, 38, 255, 94, 60, 51, 255, 119, 76, 64, 255, 94, 60, 51, 255, 144, 93, 77, 255, 119, 76, 64, 255, 119, 76, 64, 255, 119, 76, 64, 255, 119, 76, 64, 255, 68, 43, 38, 255, 43, 26, 25, 255, 68, 43, 38, 255, 94, 60, 51, 255, 119, 76, 64, 255, 94, 60, 51, 255, 94, 60, 51, 255, 43, 26, 25, 255, 68, 43, 38, 255, 68, 43, 38, 255, 94, 60, 51, 255, 119, 76, 64, 255, 144, 93, 77, 255, 144, 93, 77, 255, 94, 60, 51, 255, 144, 93, 77, 255, 119, 76, 64, 255, 94, 60, 51, 255, 68, 43, 38, 255, 43, 26, 25, 255, 68, 43, 38, 255, 68, 43, 38, 255, 94, 60, 51, 255, 94, 60, 51, 255, 94, 60, 51, 255, 119, 76, 64, 255, 119, 76, 64, 255, 94, 60, 51, 255, 94, 60, 51, 255, 68, 43, 38, 255, 68, 43, 38, 255, 94, 60, 51, 255, 94, 60, 51, 255, 68, 43, 38, 255, 68, 43, 38, 255, 94, 60, 51, 255, 94, 60, 51, 255, 68, 43, 38, 255, 94, 60, 51, 255, 68, 43, 38, 255, 68, 43, 38, 255, 94, 60, 51, 255, 68, 43, 38, 255, 94, 60, 51, 255, 119, 76, 64, 255, 144, 93, 77, 255, 144, 93, 77, 255, 144, 93, 77, 255, 144, 93, 77, 255, 94, 60, 51, 255, 94, 60, 51, 255, 94, 60, 51, 255, 43, 26, 25, 255, 43, 26, 25, 255, 43, 26, 25, 255, 94, 60, 51, 255, 68, 43, 38, 255, 94, 60, 51, 255, 94, 60, 51, 255, 94, 60, 51, 255, 68, 43, 38, 255, 68, 43, 38, 255, 94, 60, 51, 255, 68, 43, 38, 255, 94, 60, 51, 255, 68, 43, 38, 255, 68, 43, 38, 255, 43, 26, 25, 255, 68, 43, 38, 255, 68, 43, 38, 255, 43, 26, 25, 255, 43, 26, 25, 255, 94, 60, 51, 255, 68, 43, 38, 255, 68, 43, 38, 255, 94, 60, 51, 255, 94, 60, 51, 255, 144, 93, 77, 255, 144, 93, 77, 255, 144, 93, 77, 255, 119, 76, 64, 255, 119, 76, 64, 255, 119, 76, 64, 255, 68, 43, 38, 255, 43, 26, 25, 255, 43, 26, 25, 255, 43, 26, 25, 255, 68, 43, 38, 255, 43, 26, 25, 255, 68, 43, 38, 255, 94, 60, 51, 255, 94, 60, 51, 255, 68, 43, 38, 255, 68, 43, 38, 255, 68, 43, 38, 255, 94, 60, 51, 255, 94, 60, 51, 255, 68, 43, 38, 255, 43, 26, 25, 255, 43, 26, 25, 255, 43, 26, 25, 255, 43, 26, 25, 255, 43, 26, 25, 255, 43, 26, 25, 255, 43, 26, 25, 255, 68, 43, 38, 255, 68, 43, 38, 255, 68, 43, 38, 255, 94, 60, 51, 255, 94, 60, 51, 255, 119, 76, 64, 255, 119, 76, 64, 255, 119, 76, 64, 255, 94, 60, 51, 255, 119, 76, 64, 255, 68, 43, 38, 255, 43, 26, 25, 255, 68, 43, 38, 255, 68, 43, 38, 255, 43, 26, 25, 255, 68, 43, 38, 255, 43, 26, 25, 255, 68, 43, 38, 255, 43, 26, 25, 255, 43, 26, 25, 255, 43, 26, 25, 255, 43, 26, 25, 255, 94, 60, 51, 255, 68, 43, 38, 255, 68, 43, 38, 255, 43, 26, 25, 255, 68, 43, 38, 255, 94, 60, 51, 255, 68, 43, 38, 255, 68, 43, 38, 255, 68, 43, 38, 255, 43, 26, 25, 255, 43, 26, 25, 255, 68, 43, 38, 255, 43, 26, 25, 255, 94, 60, 51, 255, 119, 76, 64, 255, 94, 60, 51, 255, 94, 60, 51, 255, 94, 60, 51, 255, 119, 76, 64, 255, 94, 60, 51, 255, 43, 26, 25, 255, 43, 26, 25, 255, 43, 26, 25, 255, 43, 26, 25, 255, 43, 26, 25, 255, 68, 43, 38, 255, 68, 43, 38, 255, 68, 43, 38, 255, 43, 26, 25, 255, 68, 43, 38, 255, 94, 60, 51, 255, 68, 43, 38, 255, 43, 26, 25, 255, 43, 26, 25, 255, 43, 26, 25, 255, 68, 43, 38, 255, 68, 43, 38, 255, 94, 60, 51, 255, 94, 60, 51, 255, 94, 60, 51, 255, 94, 60, 51, 255, 43, 26, 25, 255, 94, 60, 51, 255, 43, 26, 25, 255, 68, 43, 38, 255, 68, 43, 38, 255, 68, 43, 38, 255, 94, 60, 51, 255, 68, 43, 38, 255, 94, 60, 51, 255, 94, 60, 51, 255, 43, 26, 25, 255, 43, 26, 25, 255, 68, 43, 38, 255, 68, 43, 38, 255, 94, 60, 51, 255, 94, 60, 51, 255, 94, 60, 51, 255, 94, 60, 51, 255, 68, 43, 38, 255, 94, 60, 51, 255, 119, 76, 64, 255, 119, 76, 64, 255, 43, 26, 25, 255, 68, 43, 38, 255, 43, 26, 25, 255, 43, 26, 25, 255, 94, 60, 51, 255, 68, 43, 38, 255, 119, 76, 64, 255, 119, 76, 64, 255, 144, 93, 77, 255, 94, 60, 51, 255, 119, 76, 64, 255, 68, 43, 38, 255, 68, 43, 38, 255, 43, 26, 25, 255, 43, 26, 25, 255, 43, 26, 25, 255, 94, 60, 51, 255, 68, 43, 38, 255, 94, 60, 51, 255, 94, 60, 51, 255, 68, 43, 38, 255, 68, 43, 38, 255, 94, 60, 51, 255, 68, 43, 38, 255, 144, 93, 77, 255, 144, 93, 77, 255, 119, 76, 64, 255, 119, 76, 64, 255, 94, 60, 51, 255, 119, 76, 64, 255, 119, 76, 64, 255, 94, 60, 51, 255, 68, 43, 38, 255, 68, 43, 38, 255, 68, 43, 38, 255, 68, 43, 38, 255, 68, 43, 38, 255, 94, 60, 51, 255, 119, 76, 64, 255, 144, 93, 77, 255, 144, 93, 77, 255, 94, 60, 51, 255, 144, 93, 77, 255, 94, 60, 51, 255, 68, 43, 38, 255, 43, 26, 25, 255, 68, 43, 38, 255, 43, 26, 25, 255, 43, 26, 25, 255, 68, 43, 38, 255, 68, 43, 38, 255, 68, 43, 38, 255, 68, 43, 38, 255, 68, 43, 38, 255, 94, 60, 51, 255, 94, 60, 51, 255, 119, 76, 64, 255, 144, 93, 77, 255, 144, 93, 77, 255, 144, 93, 77, 255, 119, 76, 64, 255, 119, 76, 64, 255, 119, 76, 64, 255, 68, 43, 38, 255, 68, 43, 38, 255, 68, 43, 38, 255, 68, 43, 38, 255, 68, 43, 38, 255, 43, 26, 25, 255, 94, 60, 51, 255, 94, 60, 51, 255, 119, 76, 64, 255, 119, 76, 64, 255, 144, 93, 77, 255, 144, 93, 77, 255, 119, 76, 64, 255, 119, 76, 64, 255, 68, 43, 38, 255, 68, 43, 38, 255, 43, 26, 25, 255, 68, 43, 38, 255, 43, 26, 25, 255, 68, 43, 38, 255, 68, 43, 38, 255, 68, 43, 38, 255, 68, 43, 38, 255, 94, 60, 51, 255, 119, 76, 64, 255, 144, 93, 77, 255, 144, 93, 77, 255, 119, 76, 64, 255, 144, 93, 77, 255, 144, 93, 77, 255, 119, 76, 64, 255, 94, 60, 51, 255, 43, 26, 25, 255, 68, 43, 38, 255, 43, 26, 25, 255, 43, 26, 25, 255, 68, 43, 38, 255, 68, 43, 38, 255, 68, 43, 38, 255, 119, 76, 64, 255, 94, 60, 51, 255, 119, 76, 64, 255, 144, 93, 77, 255, 144, 93, 77, 255, 144, 93, 77, 255, 144, 93, 77, 255, 94, 60, 51, 255, 119, 76, 64, 255, 94, 60, 51, 255, 68, 43, 38, 255, 43, 26, 25, 255, 68, 43, 38, 255, 68, 43, 38, 255, 94, 60, 51, 255, 94, 60, 51, 255, 94, 60, 51, 255, 119, 76, 64, 255, 119, 76, 64, 255, 144, 93, 77, 255, 144, 93, 77, 255, 144, 93, 77, 255, 68, 43, 38, 255, 94, 60, 51, 255, 94, 60, 51, 255, 68, 43, 38, 255, 43, 26, 25, 255, 68, 43, 38, 255, 94, 60, 51, 255, 68, 43, 38, 255, 43, 26, 25, 255, 94, 60, 51, 255, 119, 76, 64, 255, 94, 60, 51, 255, 119, 76, 64, 255, 119, 76, 64, 255, 144, 93, 77, 255, 144, 93, 77, 255, 119, 76, 64, 255, 119, 76, 64, 255, 144, 93, 77, 255, 68, 43, 38, 255, 94, 60, 51, 255, 68, 43, 38, 255, 94, 60, 51, 255, 43, 26, 25, 255, 68, 43, 38, 255, 68, 43, 38, 255, 68, 43, 38, 255, 68, 43, 38, 255, 94, 60, 51, 255, 144, 93, 77, 255, 144, 93, 77, 255, 68, 43, 38, 255, 94, 60, 51, 255, 68, 43, 38, 255, 68, 43, 38, 255, 43, 26, 25, 255, 43, 26, 25, 255, 94, 60, 51, 255, 94, 60, 51, 255, 43, 26, 25, 255, 43, 26, 25, 255, 68, 43, 38, 255, 43, 26, 25, 255, 68, 43, 38, 255, 94, 60, 51, 255, 144, 93, 77, 255, 144, 93, 77, 255, 144, 93, 77, 255, 144, 93, 77, 255, 119, 76, 64, 255, 119, 76, 64, 255, 94, 60, 51, 255, 68, 43, 38, 255, 68, 43, 38, 255, 43, 26, 25, 255, 68, 43, 38, 255, 68, 43, 38, 255, 43, 26, 25, 255, 68, 43, 38, 255, 94, 60, 51, 255, 68, 43, 38, 255, 119, 76, 64, 255, 94, 60, 51, 255, 94, 60, 51, 255, 68, 43, 38, 255, 43, 26, 25, 255, 43, 26, 25, 255, 43, 26, 25, 255, 68, 43, 38, 255, 68, 43, 38, 255, 43, 26, 25, 255, 94, 60, 51, 255, 43, 26, 25, 255, 43, 26, 25, 255, 43, 26, 25, 255, 94, 60, 51, 255, 68, 43, 38, 255, 94, 60, 51, 255, 119, 76, 64, 255, 144, 93, 77, 255, 94, 60, 51, 255, 119, 76, 64, 255, 68, 43, 38, 255, 68, 43, 38, 255, 94, 60, 51, 255, 68, 43, 38, 255, 43, 26, 25, 255, 68, 43, 38, 255, 43, 26, 25, 255, 43, 26, 25, 255, 68, 43, 38, 255, 68, 43, 38, 255, 94, 60, 51, 255, 94, 60, 51, 255, 68, 43, 38, 255, 68, 43, 38, 255, 94, 60, 51, 255, 43, 26, 25, 255, 94, 60, 51, 255, 94, 60, 51, 255, 43, 26, 25, 255, 43, 26, 25, 255, 43, 26, 25, 255, 68, 43, 38, 255, 68, 43, 38, 255, 68, 43, 38, 255, 43, 26, 25, 255, 68, 43, 38, 255, 68, 43, 38, 255, 68, 43, 38, 255, 144, 93, 77, 255, 119, 76, 64, 255, 119, 76, 64, 255, 68, 43, 38, 255, 94, 60, 51, 255, 68, 43, 38, 255, 43, 26, 25, 255, 43, 26, 25, 255, 68, 43, 38, 255, 43, 26, 25, 255, 68, 43, 38, 255, 94, 60, 51, 255, 43, 26, 25, 255, 43, 26, 25, 255, 94, 60, 51, 255, 94, 60, 51, 255, 68, 43, 38, 255, 68, 43, 38, 255, 68, 43, 38, 255, 68, 43, 38, 255, 68, 43, 38, 255, 43, 26, 25, 255, 43, 26, 25, 255, 43, 26, 25, 255, 68, 43, 38, 255, 119, 76, 64, 255, 94, 60, 51, 255, 94, 60, 51, 255, 68, 43, 38, 255, 43, 26, 25, 255, 68, 43, 38, 255, 68, 43, 38, 255, 119, 76, 64, 255, 68, 43, 38, 255, 68, 43, 38, 255, 43, 26, 25, 255, 68, 43, 38, 255, 68, 43, 38, 255, 68, 43, 38, 255, 94, 60, 51, 255, 68, 43, 38, 255, 94, 60, 51, 255, 94, 60, 51, 255, 68, 43, 38, 255, 68, 43, 38, 255, 43, 26, 25, 255, 68, 43, 38, 255, 68, 43, 38, 255, 68, 43, 38, 255, 43, 26, 25, 255, 68, 43, 38, 255, 94, 60, 51, 255, 68, 43, 38, 255, 43, 26, 25, 255, 68, 43, 38, 255, 68, 43, 38, 255, 94, 60, 51, 255, 144, 93, 77, 255, 144, 93, 77, 255, 119, 76, 64, 255, 68, 43, 38, 255, 94, 60, 51, 255, 94, 60, 51, 255, 94, 60, 51, 255, 68, 43, 38, 255, 94, 60, 51, 255, 94, 60, 51, 255, 68, 43, 38, 255, 43, 26, 25, 255, 43, 26, 25, 255, 68, 43, 38, 255, 119, 76, 64, 255, 119, 76, 64, 255, 94, 60, 51, 255, 144, 93, 77, 255, 119, 76, 64, 255, 43, 26, 25, 255, 68, 43, 38, 255, 68, 43, 38, 255, 68, 43, 38, 255, 43, 26, 25, 255, 68, 43, 38, 255, 94, 60, 51, 255, 94, 60, 51, 255, 68, 43, 38, 255, 43, 26, 25, 255, 68, 43, 38, 255, 68, 43, 38, 255, 94, 60, 51, 255, 119, 76, 64, 255, 94, 60, 51, 255, 119, 76, 64, 255, 94, 60, 51, 255, 68, 43, 38, 255, 43, 26, 25, 255, 68, 43, 38, 255, 94, 60, 51, 255, 68, 43, 38, 255, 43, 26, 25, 255, 68, 43, 38, 255, 68, 43, 38, 255, 43, 26, 25, 255, 68, 43, 38, 255, 94, 60, 51, 255, 94, 60, 51, 255, 144, 93, 77, 255, 119, 76, 64, 255, 119, 76, 64, 255, 94, 60, 51, 255, 68, 43, 38, 255, 94, 60, 51, 255, 68, 43, 38, 255, 68, 43, 38, 255, 43, 26, 25, 255, 68, 43, 38, 255, 68, 43, 38, 255, 43, 26, 25, 255, 68, 43, 38, 255, 119, 76, 64, 255, 68, 43, 38, 255, 119, 76, 64, 255, 119, 76, 64, 255, 94, 60, 51, 255, 119, 76, 64, 255, 94, 60, 51, 255, 68, 43, 38, 255, 68, 43, 38, 255, 43, 26, 25, 255, 43, 26, 25, 255, 43, 26, 25, 255, 43, 26, 25, 255, 68, 43, 38, 255, 94, 60, 51, 255, 68, 43, 38, 255, 68, 43, 38, 255, 68, 43, 38, 255, 68, 43, 38, 255, 94, 60, 51, 255, 119, 76, 64, 255, 144, 93, 77, 255, 144, 93, 77, 255, 94, 60, 51, 255, 94, 60, 51, 255, 43, 26, 25, 255, 68, 43, 38, 255, 43, 26, 25, 255, 68, 43, 38, 255, 94, 60, 51, 255 )
size = Vector2( 32, 32 )
storage = 0
lossy_quality = 0.7

[sub_resource type="ConvexPolygonShape2D" id=2]

custom_solver_bias = 0.0
points = Vector2Array( -16, -16, 16, -16, 16, 16, -16, 16 )

[sub_resource type="OccluderPolygon2D" id=3]

closed = true
cull_mode = 0
polygon = Vector2Array( -16, -16, 16, -16, 16, 16, -16, 16 )

[node name="SmallTileset" type="Node2D"]

[node name="dirt0" type="Sprite" parent="."]

texture = SubResource( 1 )

[node name="StaticBody2D" type="StaticBody2D" parent="dirt0"]

input/pickable = false
shapes/0/shape = SubResource( 2 )
shapes/0/transform = Matrix32( 1, 0, 0, 1, 0, 0 )
shapes/0/trigger = false
collision/layers = 1
collision/mask = 1
constant_linear_velocity = Vector2( 0, 0 )
constant_angular_velocity = 0.0
friction = 1.0
bounce = 0.0

[node name="CollisionPolygon2D" type="CollisionPolygon2D" parent="dirt0/StaticBody2D"]

build_mode = 0
polygon = Vector2Array( -16, -16, 16, -16, 16, 16, -16, 16 )
shape_range = Vector2( -1, -1 )
trigger = false

[node name="LightOccluder2D" type="LightOccluder2D" parent="dirt0"]

occluder = SubResource( 3 )
light_mask = 1


